


                     eT 1.9 - an electronic structure program

  ------------------------------------------------------------------------
   Author list in alphabetical order:
  ------------------------------------------------------------------------
   J. H. Andersen, A. Balbi, S. Coriani, S. D. Folkestad, T. Giovannini, 
   L. Goletto, T. S. Haugland, A. Hutcheson, I-M. Høyvik, E. F. Kjønstad, 
   H. Koch, R. Matveeva, T. Moitra, R. H. Myhre, A. C. Paul, S. Roet, 
   E. Ronca, M. Scavino, A. K. Schnack-Petersen, A. S. Skeidsvoll, Å. 
   H. Tveten
  ------------------------------------------------------------------------
   J. Chem. Phys. 152, 184103 (2020); https://doi.org/10.1063/5.0004713


   This is eT 1.9.0 Jazzy
  ------------------------------------------------------------
  Configuration date: 2022-10-19 10:25:53 UTC -07:00
  Git branch:         detached HEAD
  Git hash:           57c35dcc31df636729251e2448b7b0d0dd22e1f1
  Fortran compiler:   GNU 11.3.0
  C compiler:         GNU 11.3.0
  C++ compiler:       GNU 11.3.0
  LAPACK type:        SYSTEM_NATIVE
  BLAS type:          SYSTEM_NATIVE
  64-bit integers:    OFF
  OpenMP:             ON
  PCM:                OFF
  Forced batching:    OFF
  Runtime checks:     OFF
  ------------------------------------------------------------


  :: Input file
  ================

     Note: geometry section is excluded from this print

     system
        name: h2o-h2o-fq
        charge: 0
     end system

     do
       ground state
     end do

     memory
        available: 8
     end memory

     solver scf
        algorithm:          scf-diis
        energy threshold:   1.0d-10
        gradient threshold: 1.0d-10
     end solver scf

     solver cholesky
        threshold: 1.0d-11
     end solver cholesky

     molecular mechanics
        forcefield: fq
     end molecular mechanics

     method
        hf
        mp2
     end method


  Calculation start:2022-10-19 10:30:29 UTC -07:00

  Running on 2 OMP threads
  Memory available for calculation: 8.000000 GB


  :: RHF wavefunction
  ===================

     ==============================================================================
                                     Geometry (angstrom)
     ==============================================================================
        Atom           X                  Y                  Z         # in input
     ==============================================================================
        Basis: cc-pvdz
        1  O     0.009319000000     1.133156000000     0.000000000000        1
        2  H     0.023452000000     0.185621000000     0.000000000000        2
        3  H     0.906315000000     1.422088000000     0.000000000000        3
     ==============================================================================

     ==============================================================================
                                     Geometry (a.u.)
     ==============================================================================
        Atom           X                  Y                  Z         # in input
     ==============================================================================
        Basis: cc-pvdz
        1  O     0.017610357755     2.141354496408     0.000000000000        1
        2  H     0.044317857073     0.350772852968     0.000000000000        2
        3  H     1.712687132585     2.687356845030     0.000000000000        3
     ==============================================================================

  - Cholesky decomposition of AO overlap to get linearly independent AOs:

     Linear dependence threshold:             0.10E-05
     Number of atomic orbitals:               24
     Number of orthonormal atomic orbitals:   24

  This is a QM/MM calculation

     Polarizable Embedding: FQ

     Each atom of the MM portion is endowed with a charge which value 
     can vary in agreement with the ElectronegativityEqualization Principle 
     (EEP), which states that at the equilibrium each atom has the same 
     electronegativity.

     The force field is defined in terms of electronegativity (Chi) and 
     chemical hardness (Eta), which are specified for each MM atom.

     The QM/MM electrostatic interaction energy is defined as:

        E^ele_QM/MM = sum_i q_i * V_i(P)

     where V_i(P) is the electrostatic potential due to the QMdensity 
     calculated at the position of the i-th charge q_i.The values of the 
     charges are obtained by solving a linearequation:

        Dq = -Chi - V(P)

     For further details, see:
     T.Giovannini, F.Egidi, C.Cappelli, Chem. Soc. Rev., 2020, 49, 5664-5677

     CC calculation: zero-order approximation
     FQ charges only affect MOs and Fock


     ====================================================================
                                MM Geometry (angstrom)
     ====================================================================
     Atom    Mol         X          Y          Z         Chi        Eta
     ====================================================================
      O       1    -0.042964  -1.404707  -0.000000   0.685392   0.366624
      H       1    -0.419020  -1.818953   0.760190   0.499339   0.824306
      H       1    -0.419020  -1.818953  -0.760190   0.499339   0.824306
     ====================================================================

     ====================================================================
                                MM Geometry (a.u.)
     ====================================================================
     Atom    Mol         X          Y          Z         Chi        Eta
     ====================================================================
      O       1    -0.081190  -2.654512  -0.000000   0.685392   0.366624
      H       1    -0.791833  -3.437323   1.436551   0.499339   0.824306
      H       1    -0.791833  -3.437323  -1.436551   0.499339   0.824306
     ====================================================================

  - Molecular orbital details:

     Number of occupied orbitals:         5
     Number of virtual orbitals:         19
     Number of molecular orbitals:       24


  Generating initial SAD density
  ==============================


  Determining reference state
  ===========================

  - Setting initial AO density to sad

     Energy of initial guess:               -76.062235942167
     Number of electrons in guess:           10.000000000000

  - Screening and integral thresholds:

     Coulomb screening threshold:    0.1000E-15
     Exchange screening threshold:   0.1000E-13
     ERI cutoff:                     0.1000E-15
     One-electron integral  cutoff:  0.1000E-20
     Cumulative Fock threshold:      0.1000E+01

  - SCF solver settings:

     Maximum iterations:                   100
     Acceleration type:                   diis

  - Convergence thresholds

     Residual threshold:            0.1000E-09
     Energy threshold:              0.1000E-09

  - DIIS tool settings:

     DIIS dimension:   8

     Storage (solver scf_errors): memory
     Storage (solver scf_parameters): memory

  Iteration       Energy (a.u.)      Max(grad.)    Delta E (a.u.)
  ---------------------------------------------------------------
     1           -76.167279756470     0.9671E-01     0.7617E+02
     2           -76.197738767124     0.5107E-01     0.3046E-01
     3           -76.206857227431     0.4489E-02     0.9118E-02
     4           -76.207018878232     0.9313E-03     0.1617E-03
     5           -76.207030498703     0.1952E-03     0.1162E-04
     6           -76.207030950099     0.3794E-04     0.4514E-06
     7           -76.207030963560     0.3170E-05     0.1346E-07
     8           -76.207030963669     0.6267E-06     0.1093E-09
     9           -76.207030963674     0.1931E-06     0.4363E-11
    10           -76.207030963674     0.2812E-07     0.3411E-12
    11           -76.207030963674     0.5357E-08     0.8527E-13
    12           -76.207030963674     0.1568E-08     0.0000E+00
    13           -76.207030963674     0.4163E-09     0.7105E-13
    14           -76.207030963674     0.8156E-10     0.4263E-13
  ---------------------------------------------------------------
  Convergence criterion met in 14 iterations!

  - Summary of RHF wavefunction energetics (a.u.):

     HOMO-LUMO gap:                  0.678594129373
     Nuclear repulsion energy:       9.307879526626
     Electronic energy:            -85.514910490300
     Total energy:                 -76.207030963674

  - Summary of QM/MM energetics:
                                         a.u.             eV     kcal/mol
     QM/MM SCF Contribution:        -0.185843425383    -5.05706  -116.619
     QM/MM Electrostatic Energy:    -0.047894522920    -1.30328   -30.054


  :: MP2 wavefunction
  ===================

     Bath orbital(s):         False

   - Number of orbitals:

     Occupied orbitals:    5
     Virtual orbitals:     19
     Molecular orbitals:   24
     Atomic orbitals:      24

   - Number of ground state amplitudes:

     Single excitation amplitudes:  95


  Cholesky-decomposing electron repulsion integrals
  =================================================

  Cholesky decomposition of electronic repulsion integrals solver
  ---------------------------------------------------------------

  Performs a Cholesky decomposition of the two-electron electronic repulsion 
  integrals in the atomic orbital basis,

  (ab|cd) = sum_J L_ab^J L_cd^J.

  Once the Cholesky basis has been determined, the vectors L^J are constructed 
  and stored to disk. These may either be used directly, or be transformed 
  to the MO basis for use in post-HF calculations. For more information, 
  see S. D. Folkestad, E. F. Kjønstad and H. Koch, JCP, 150(19), (2019)

  - Cholesky decomposition settings:

     Target threshold is:   0.10E-10
     Span factor:           0.10E-01
     Max qual:                  1000

  - Cholesky decomposition ao details:

     Total number of AOs:                    24
     Total number of shell pairs:            78
     Total number of AO pairs:              300

     Significant shell pairs:                78
     Significant AO pairs:                  300

     Construct shell pairs:                  78
     Construct AO pairs:                    300

  Iter.  #Sign. ao pairs / shell pairs   Max diagonal    #Qualified    #Cholesky    Cholesky array size
  -------------------------------------------------------------------------------------------------------
     1               285 /      71       0.47383E+01         150             29              8265
     2               220 /      60       0.46828E-01         242             99             21780
     3               141 /      47       0.46528E-03         158            157             22137
     4               105 /      33       0.45055E-05         122            226             23730
     5                12 /       8       0.45032E-07          55            271              3252
     6                 0 /       0       0.23634E-09           9            279                 0
  -------------------------------------------------------------------------------------------------------

  - Summary of Cholesky decomposition of electronic repulsion integrals:

     Final number of Cholesky vectors: 279

 - Testing the Cholesky decomposition decomposition electronic repulsion integrals:

     Maximal difference between approximate and actual diagonal:              0.1995E-12
     Minimal element of difference between approximate and actual diagonal:  -0.1238E-14

  - Settings for integral handling:

     Cholesky vectors in memory: True
     ERI matrix in memory:       False

  - Finished decomposing the ERIs.

     Total wall time (sec):              0.30700
     Total cpu time (sec):               0.18364


  Determining CC cluster amplitudes
  =================================

   - DIIS coupled cluster ground state solver
  ----------------------------------------------

  A DIIS CC ground state amplitude equations solver. It uses an extrapolation 
  of previous quasi-Newton perturbation theory estimates of the next amplitudes. 
  See Helgaker et al., Molecular Electronic Structure Theory, Chapter 
  13.

  - CC ground state solver settings:

  - Convergence thresholds

     Residual threshold:            0.1000E-04
     Max number of iterations:      100

  - DIIS tool settings:

     DIIS dimension:   8

     Storage (cc_gs_diis_errors): file
     Storage (cc_gs_diis_parameters): file

  Iteration    Energy (a.u.)        |omega|       Delta E (a.u.)
  ---------------------------------------------------------------
    1           -76.408434178830     0.1486E-09     0.7641E+02
  ---------------------------------------------------------------
  Convergence criterion met in 1 iterations!

  - Ground state summary:

     HF energy:                   -76.207030963674
     MP2 correction:               -0.201403215156
     MP2 energy:                  -76.408434178830

  - Finished solving the MP2 ground state equations

     Total wall time (sec):              0.00300
     Total cpu time (sec):               0.00161

  Peak memory usage during the execution of eT: 5.890128 MB

  Total wall time in eT (sec):              0.87800
  Total cpu time in eT (sec):               0.63379

  Calculation end:2022-10-19 10:30:30 UTC -07:00

  - Implementation references:

     eT: https://doi.org/10.1063/5.0004713
     Cholesky decomposition of ERIs: https://doi.org/10.1063/1.5083802

  eT terminated successfully!
